{
    "size": 2,
    "totalPages": 3,
    "totalElements": 4,
    "number": 5,
    "details": [
        {
            "paymentId": "new-payment-id",
            "createdAt": "2022-01-26T00:00:00+00:00",
            "status": "new-status",
            "amount": 20,
            "currency": "USD",
            "creditor": {
                "profileId": "profile-id2",
                "merchantId": "merchant-id",
                "name": "name",
                "iban": "iban"
            },
            "debtor": {
                "name": "name",
                "iban": "iban"
            },
            "expiresAt": "2022-01-26T00:00:00+00:00",
            "transferAmount": 10,
            "tippingAmount": 10,
            "totalAmount": 10,
            "description": "desc",
            "bulkId": "bulk-id"
        }
    ]
}
